[npc]
Rayquaza
up
0
20
27
Rayquaza,80
1
-1
0
false
false
false
[/npc]
[npc]
Rayquaza
up
0
21
27
Rayquaza,80
1
-1
0
false
false
false
[/npc]
[npc]
Rayquaza
up
0
22
27
Rayquaza,80
1
-1
0
false
false
false
[/npc]
[warp]
24
33
20
13
-40
-45
0
[/warp]