[warp]
19
69
12
14
22
21
0
[/warp]
[warp]
20
69
12
14
22
21
0
[/warp]
[warp]
28
61
30
40
-42
-40
0
[/warp]
[warp]
30
39
28
62
-42
-40
0
[/warp]
[warp]
16
39
16
19
-42
-40
0
[/warp]
[warp]
16
18
16
40
-42
-40
0
[/warp]