[npc]
Fisherman
up
368
4
14
NULL
0
-1
0,1
false
false
false
[/npc]
[npc]
Fisherman
up
368
17
14
NULL
0
-1
2,3
false
false
false
[/npc]
[warp]
13
7
6
24
-40
-39
0
[/warp]
