[npc]
NULL
down
0
16
7
NULL
0
-1
0,1,2,3,4,5,6,7
false
false
false
[/npc]
[npc]
NULL
down
0
17
8
NULL
0
-1
0,1,2,3,4,5,6,7
false
false
false
[/npc]
[npc]
Receptionist
left
328
17
7
NULL
0
-1
8
false
false
false
[/npc]
[warp]
5
12
11
15
12
15
0
[/warp]
[warp]
11
7
5
7
-50
-23
0
[/warp]