[npc]
Sage Troy
down
276
7
11
Bellsprout,7,Hoothoot,7
2
-1
0
false
false
false
[/npc]
[npc]
Sage Jin
right
276
7
14
Bellsprout,6
1
-1
1
false
false
false
[/npc]
[npc]
Sage Neal
left
276
12
12
Bellsprout,6
1
-1
2
false
false
false
[/npc]
[npc]
Sage Li
down
276
10
3
Bellsprout,7,Hoothoot,10,Bellsprout,7
3
-1
3,4,5,6,7
false
false
false
[/npc]
[warp]
11
15
9
16
-50
-45
0
[/warp]
