[npc]
sign
down
0
24
37
NULL
0
-1
0
false
false
false
[/npc]
[npc]
sign
down
0
24
11
NULL
0
-1
0
false
false
false
[/npc]
[npc]
Seasond_Sailor
down
395
28
12
NULL
0
-1
0
false
false
false
[/npc]
[npc]
citizen
down
332
11
38
NULL
0
-1
0
false
false
false
[/npc]
[npc]
citizen
down
347
5
50
NULL
0
-1
0
false
false
11
[/npc]
[npc]
citizen
down
351
5
42
NULL
0
-1
0
false
false
7
[/npc]
[npc]
citizen
right
375
6
37
NULL
0
-1
2
false
false
10
[/npc]
[warp]
19
18
15
16
0
49
0
[/warp]
[warp]
13
25
5
7
23
49
0
[/warp]
[warp]
10
11
17
20
-45
-4
0
[/warp]
[warp]
22
43
13
22
-45
-5
0
[/warp]
[warp]
30
27
23
37
-45
-6
0
[/warp]
[warp]
31
27
24
37
-45
-6
0
[/warp]
[warp]
13
18
12
22
-45
-7
0
[/warp]
[warp]
28
36
15
58
-45
-8
0
[/warp]
[warp]
4
24
17
21
-43
-35
0
[/warp]
