[warp]
23
8
2
46
37
-50
0
[/warp]
[warp]
24
8
3
46
37
-50
0
[/warp]
[warp]
50
16
350
69
45
-35
0
[/warp]
[warp]
8
88
10
8
-37
-49
0
[/warp]
[warp]
30
63
10
8
-37
-44
0
[/warp]


