[warp]
42
16
45
16
45
5
0
[/warp]
[warp]
37
21
42
24
45
5
0
[/warp]
[warp]
34
22
35
23
45
5
0
[/warp]
[warp]
24
16
24
17
45
5
0
[/warp]
[warp]
18
26
18
27
45
5
0
[/warp]
[warp]
16
18
15
17
45
5
0
[/warp]
[warp]
14
19
18
21
45
7
0
[/warp]

